module gitlab.com/navenest/golang-library

go 1.22

toolchain go1.22.0

require (
	go.opentelemetry.io/otel v1.27.0
	go.opentelemetry.io/otel/exporters/otlp/otlpmetric/otlpmetricgrpc v1.27.0
	go.opentelemetry.io/otel/exporters/otlp/otlpmetric/otlpmetrichttp v1.27.0
	go.opentelemetry.io/otel/exporters/otlp/otlptrace/otlptracegrpc v1.27.0
	go.opentelemetry.io/otel/exporters/otlp/otlptrace/otlptracehttp v1.27.0
	go.opentelemetry.io/otel/metric v1.27.0
	go.opentelemetry.io/otel/sdk v1.27.0
	go.opentelemetry.io/otel/sdk/metric v1.27.0
	go.uber.org/zap v1.27.0
)

require (
	github.com/cenkalti/backoff/v4 v4.3.0 // indirect
	github.com/go-logr/logr v1.4.2 // indirect
	github.com/go-logr/stdr v1.2.2 // indirect
	github.com/grpc-ecosystem/grpc-gateway/v2 v2.20.0 // indirect
	go.opentelemetry.io/otel/exporters/otlp/otlptrace v1.27.0 // indirect
	go.opentelemetry.io/otel/trace v1.27.0 // indirect
	go.opentelemetry.io/proto/otlp v1.2.0 // indirect
	go.uber.org/multierr v1.11.0 // indirect
	golang.org/x/net v0.25.0 // indirect
	golang.org/x/sys v0.20.0 // indirect
	golang.org/x/text v0.15.0 // indirect
	google.golang.org/genproto/googleapis/api v0.0.0-20240528184218-531527333157 // indirect
	google.golang.org/genproto/googleapis/rpc v0.0.0-20240528184218-531527333157 // indirect
	google.golang.org/grpc v1.64.0 // indirect
	google.golang.org/protobuf v1.34.1 // indirect
)
